…
And the number of records by pathogen:

``` r

parametra_long %>%
  count(pathogen, sort = TRUE)
```

    ## # A tibble: 24 × 2
    ##    pathogen                   n
    ##    <chr>                  <int>
    ##  1 Avian Influenza          577
    ##  2 Paratuberculosis         313
    ##  3 E. coli                  300
    ##  4 Hepatitis E              248
    ##  5 African Swine Fever      186
    ##  6 Bovine Tuberculosis      177
    ##  7 PRRS                     120
    ##  8 Swine Influenza          109
    ##  9 Salmonella               102
    ## 10 Foot and Mouth Disease    79
    ## # ℹ 14 more rows
…
